<?xml version="1.0" encoding="UTF-8"?>
<session version="1.0">
<refactoring accessors="true" comment="Delete element from project &apos;springboot-servicio-usuarios-commons&apos;&#x0D;&#x0A;- Original project: &apos;springboot-servicio-usuarios-commons&apos;&#x0D;&#x0A;- Original element: &apos;com.formacionbdi.springboot.app.usuarios.commons.RepositoryConfig.java&apos;" description="Delete element" element1="/src\/main\/java&lt;com.formacionbdi.springboot.app.usuarios.commons{RepositoryConfig.java" elements="1" flags="589830" id="org.eclipse.jdt.ui.delete" resources="0" stamp="1596476426229" subPackages="false" version="1.0"/>
</session>