<?xml version="1.0" encoding="UTF-8"?>
<session version="1.0">
<refactoring comment="Copy element &apos;bootstrap.properties&apos; to &apos;springboot-servicio-productos/src/main/resources&apos;&#x0D;&#x0A;- Original project: &apos;springboot-servicio-item&apos;&#x0D;&#x0A;- Destination element: &apos;springboot-servicio-productos/src/main/resources&apos;&#x0D;&#x0A;- Original element: &apos;bootstrap.properties&apos;" description="Copy file" destination="=springboot-servicio-productos/src\/main\/resources" element1="src/main/resources/bootstrap.properties" files="1" flags="589830" folders="0" id="org.eclipse.jdt.ui.copy" policy="org.eclipse.jdt.ui.copyResources" stamp="1596500828744" units="0" version="1.0"/>
</session>